…
> myc_region = "8:128747680-128753674"

> myc_mut_freq = calc_mutation_frequency_bin_region(region = myc_region, 
+     slide_by = 10, window_size = 10000)

> dplyr::arrange(myc_mut_freq, desc(mutation_count))
# A tibble: 612,000 × 3
   sample_id                 bin         mutation_count
   <chr>                     <chr>                <int>
 1 BLGSP-71-26-00399-01A-01E 8_128747680             41
 2 BLGSP-71-26-00399-01A-01E 8_128747690             41
 3 BLGSP-71-26-00399-01A-01E 8_128747700             41
 4 BLGSP-71-26-00399-01A-01E 8_128747710             41
 5 BLGSP-71-26-00399-01A-01E 8_128747720             41
 6 BLGSP-71-26-00399-01A-01E 8_128747730             41
 7 BLGSP-71-26-00399-01A-01E 8_128747740             41
 8 BLGSP-71-26-00399-01A-01E 8_128747750             41
 9 BLGSP-71-26-00399-01A-01E 8_128747760             41
10 BLGSP-71-26-00399-01A-01E 8_128747770             41
# ℹ 611,990 more rows
…
> genome_meta = get_gambl_metadata(seq_type_filter = "genome")

> capture_meta = get_gambl_metadata(seq_type_filter = "capture")

> all_meta = get_gambl_metadata(seq_type_filter = c("genome", 
+     "capture"))

> dplyr::group_by(all_meta, cohort, seq_type) %>% dplyr::count()
# A tibble: 21 × 3
# Groups:   cohort, seq_type [21]
   cohort             seq_type     n
   <chr>              <chr>    <int>
 1 BL_Adult           genome      91
 2 BL_Pediatric       genome     121
 3 BL_cell_lines      genome      22
 4 DLBCL_Gascoyne     genome      21
 5 DLBCL_GenomeCanada genome      59
 6 DLBCL_HTMCP        genome      43
 7 DLBCL_ICGC         genome      84
 8 DLBCL_LSARP_Trios  capture     12
 9 DLBCL_LSARP_Trios  genome     142
10 DLBCL_Marra        genome      38
# ℹ 11 more rows
…
